build/loadstore.vcd
$version Generated by VerilatedVcd $end
$timescale 1ps $end
 $scope module TOP $end
  $scope module riscv_pkg $end
   $var wire 7 6! OPC_LOAD [6:0] $end
   $var wire 7 7! OPC_MISC [6:0] $end
   $var wire 7 8! OPC_OPIMM [6:0] $end
   $var wire 7 9! OPC_AUIPC [6:0] $end
   $var wire 7 :! OPC_STORE [6:0] $end
   $var wire 7 ;! OPC_OP [6:0] $end
   $var wire 7 <! OPC_LUI [6:0] $end
   $var wire 7 =! OPC_BRANCH [6:0] $end
   $var wire 7 >! OPC_JALR [6:0] $end
   $var wire 7 ?! OPC_JAL [6:0] $end
   $var wire 7 @! OPC_SYSTEM [6:0] $end
  $upscope $end
  $var wire 1 &! clk $end
  $var wire 1 '! rst_n $end
  $var wire 1 (! tohost_wr $end
  $var wire 32 )! tohost_data [31:0] $end
  $var wire 1 *! uart_wr $end
  $var wire 8 +! uart_data [7:0] $end
  $scope module soc_top $end
   $var wire 32 0! MEM_BYTES [31:0] $end
   $var wire 1 &! clk $end
   $var wire 1 '! rst_n $end
   $var wire 1 (! tohost_wr $end
   $var wire 32 )! tohost_data [31:0] $end
   $var wire 1 *! uart_wr $end
   $var wire 8 +! uart_data [7:0] $end
   $var wire 32 1! TOHOST_ADDR [31:0] $end
   $var wire 32 2! UART_ADDR [31:0] $end
   $var wire 32 B imem_addr [31:0] $end
   $var wire 32 C imem_rdata [31:0] $end
   $var wire 32 D dmem_addr [31:0] $end
   $var wire 32 E dmem_wdata [31:0] $end
   $var wire 32 x dmem_rdata_ram [31:0] $end
   $var wire 4 F dmem_wstrb [3:0] $end
   $var wire 1 G dmem_we $end
   $var wire 1 H is_tohost $end
   $var wire 1 I is_uart $end
   $var wire 1 J is_ram $end
   $scope module u_core $end
    $var wire 1 &! clk $end
    $var wire 1 '! rst_n $end
    $var wire 32 B imem_addr [31:0] $end
    $var wire 32 C imem_rdata [31:0] $end
    $var wire 32 D dmem_addr [31:0] $end
    $var wire 32 E dmem_wdata [31:0] $end
    $var wire 4 F dmem_wstrb [3:0] $end
    $var wire 1 G dmem_we $end
    $var wire 32 x dmem_rdata [31:0] $end
    $var wire 97 K if_idex [96:0] $end
    $var wire 110 O idex_memwb [109:0] $end
    $var wire 1 y branch_taken $end
    $var wire 32 z branch_target [31:0] $end
    $var wire 5 S memwb_rd [4:0] $end
    $var wire 32 { memwb_wb_data [31:0] $end
    $var wire 1 T memwb_reg_write $end
    $scope module u_idex $end
     $var wire 1 &! clk $end
     $var wire 1 '! rst_n $end
     $var wire 97 K f [96:0] $end
     $var wire 5 S memwb_rd [4:0] $end
     $var wire 32 { memwb_wb_data [31:0] $end
     $var wire 1 T memwb_reg_write $end
     $var wire 1 y branch_taken $end
     $var wire 32 z branch_target [31:0] $end
     $var wire 110 O d [109:0] $end
     $var wire 5 U rs1 [4:0] $end
     $var wire 5 V rs2 [4:0] $end
     $var wire 5 W rd [4:0] $end
     $var wire 3 X funct3 [2:0] $end
     $var wire 1 Y reg_write $end
     $var wire 1 Z mem_read $end
     $var wire 1 [ mem_write $end
     $var wire 1 \ branch $end
     $var wire 1 ] jump $end
     $var wire 4 ^ alu_op [3:0] $end
     $var wire 2 _ alu_asel [1:0] $end
     $var wire 1 ` alu_bsel $end
     $var wire 3 a imm_type [2:0] $end
     $var wire 32 b imm [31:0] $end
     $var wire 32 ,! rs1_data [31:0] $end
     $var wire 32 -! rs2_data [31:0] $end
     $var wire 1 c forward_a $end
     $var wire 1 d forward_b $end
     $var wire 32 | rs1_val [31:0] $end
     $var wire 32 } rs2_val [31:0] $end
     $var wire 32 ~ alu_a [31:0] $end
     $var wire 32 !! alu_b [31:0] $end
     $var wire 32 "! alu_result [31:0] $end
     $var wire 1 #! cond_true $end
     $var wire 2 e wb_sel [1:0] $end
     $scope module u_alu $end
      $var wire 4 ^ op [3:0] $end
      $var wire 32 ~ a [31:0] $end
      $var wire 32 !! b [31:0] $end
      $var wire 32 "! result [31:0] $end
      $var wire 5 $! shamt [4:0] $end
     $upscope $end
     $scope module u_decoder $end
      $var wire 32 f instr [31:0] $end
      $var wire 5 U rs1 [4:0] $end
      $var wire 5 V rs2 [4:0] $end
      $var wire 5 W rd [4:0] $end
      $var wire 3 X funct3 [2:0] $end
      $var wire 1 Y reg_write $end
      $var wire 4 ^ alu_op [3:0] $end
      $var wire 2 _ alu_asel [1:0] $end
      $var wire 1 ` alu_bsel $end
      $var wire 3 a imm_type [2:0] $end
      $var wire 1 Z mem_read $end
      $var wire 1 [ mem_write $end
      $var wire 1 \ branch $end
      $var wire 1 ] jump $end
      $var wire 7 g opcode [6:0] $end
      $var wire 1 h is_alt $end
      $var wire 1 i op_is_rtype $end
      $var wire 1 j op_uses_funct3 $end
     $upscope $end
     $scope module u_hazard $end
      $var wire 5 U rs1 [4:0] $end
      $var wire 5 V rs2 [4:0] $end
      $var wire 5 S memwb_rd [4:0] $end
      $var wire 1 T memwb_reg_write $end
      $var wire 1 c forward_a $end
      $var wire 1 d forward_b $end
     $upscope $end
     $scope module u_imm_gen $end
      $var wire 32 f instr [31:0] $end
      $var wire 3 a imm_type [2:0] $end
      $var wire 32 b imm [31:0] $end
     $upscope $end
     $scope module u_regfile $end
      $var wire 1 &! clk $end
      $var wire 5 U rs1_addr [4:0] $end
      $var wire 5 V rs2_addr [4:0] $end
      $var wire 32 ,! rs1_data [31:0] $end
      $var wire 32 -! rs2_data [31:0] $end
      $var wire 5 S rd_addr [4:0] $end
      $var wire 32 { rd_data [31:0] $end
      $var wire 1 T rd_wen $end
      $var wire 32 # regs[1] [31:0] $end
      $var wire 32 $ regs[2] [31:0] $end
      $var wire 32 % regs[3] [31:0] $end
      $var wire 32 & regs[4] [31:0] $end
      $var wire 32 ' regs[5] [31:0] $end
      $var wire 32 ( regs[6] [31:0] $end
      $var wire 32 ) regs[7] [31:0] $end
      $var wire 32 * regs[8] [31:0] $end
      $var wire 32 + regs[9] [31:0] $end
      $var wire 32 , regs[10] [31:0] $end
      $var wire 32 - regs[11] [31:0] $end
      $var wire 32 . regs[12] [31:0] $end
      $var wire 32 / regs[13] [31:0] $end
      $var wire 32 0 regs[14] [31:0] $end
      $var wire 32 1 regs[15] [31:0] $end
      $var wire 32 2 regs[16] [31:0] $end
      $var wire 32 3 regs[17] [31:0] $end
      $var wire 32 4 regs[18] [31:0] $end
      $var wire 32 5 regs[19] [31:0] $end
      $var wire 32 6 regs[20] [31:0] $end
      $var wire 32 7 regs[21] [31:0] $end
      $var wire 32 8 regs[22] [31:0] $end
      $var wire 32 9 regs[23] [31:0] $end
      $var wire 32 : regs[24] [31:0] $end
      $var wire 32 ; regs[25] [31:0] $end
      $var wire 32 < regs[26] [31:0] $end
      $var wire 32 = regs[27] [31:0] $end
      $var wire 32 > regs[28] [31:0] $end
      $var wire 32 ? regs[29] [31:0] $end
      $var wire 32 @ regs[30] [31:0] $end
      $var wire 32 A regs[31] [31:0] $end
     $upscope $end
    $upscope $end
    $scope module u_if $end
     $var wire 1 &! clk $end
     $var wire 1 '! rst_n $end
     $var wire 1 y branch_taken $end
     $var wire 32 z branch_target [31:0] $end
     $var wire 32 B imem_addr [31:0] $end
     $var wire 32 C imem_rdata [31:0] $end
     $var wire 97 K if_idex_reg [96:0] $end
     $var wire 32 3! NOP [31:0] $end
     $var wire 32 4! RESET_PC [31:0] $end
     $var wire 32 B pc_q [31:0] $end
     $var wire 32 .! pc_next [31:0] $end
    $upscope $end
    $scope module u_memwb $end
     $var wire 110 O d [109:0] $end
     $var wire 32 D dmem_addr [31:0] $end
     $var wire 32 E dmem_wdata [31:0] $end
     $var wire 4 F dmem_wstrb [3:0] $end
     $var wire 1 G dmem_we $end
     $var wire 32 x dmem_rdata [31:0] $end
     $var wire 5 S memwb_rd [4:0] $end
     $var wire 32 { memwb_wb_data [31:0] $end
     $var wire 1 T memwb_reg_write $end
     $var wire 2 k byte_off [1:0] $end
     $var wire 32 %! shifted [31:0] $end
     $var wire 32 /! load_data [31:0] $end
     $var wire 32 { wb_data [31:0] $end
    $upscope $end
   $upscope $end
   $scope module u_dmem $end
    $var wire 32 0! MEM_BYTES [31:0] $end
    $var wire 1 &! clk $end
    $var wire 32 D addr [31:0] $end
    $var wire 32 E wdata [31:0] $end
    $var wire 4 l wstrb [3:0] $end
    $var wire 1 m we $end
    $var wire 32 x rdata [31:0] $end
    $var wire 32 5! ADDR_BITS [31:0] $end
    $var wire 32 n addr_p1 [31:0] $end
    $var wire 32 o addr_p2 [31:0] $end
    $var wire 32 p addr_p3 [31:0] $end
    $var wire 16 q a0 [15:0] $end
    $var wire 16 r a1 [15:0] $end
    $var wire 16 s a2 [15:0] $end
    $var wire 16 t a3 [15:0] $end
   $upscope $end
   $scope module u_imem $end
    $var wire 32 0! MEM_BYTES [31:0] $end
    $var wire 32 B addr [31:0] $end
    $var wire 32 C rdata [31:0] $end
    $var wire 32 5! ADDR_BITS [31:0] $end
    $var wire 32 u addr_p1 [31:0] $end
    $var wire 32 v addr_p2 [31:0] $end
    $var wire 32 w addr_p3 [31:0] $end
   $upscope $end
  $upscope $end
 $upscope $end
$enddefinitions $end


#0
b00000000000000000000000000000000 #
b00000000000000000000000000000000 $
b00000000000000000000000000000000 %
b00000000000000000000000000000000 &
b00000000000000000000000000000000 '
b00000000000000000000000000000000 (
b00000000000000000000000000000000 )
b00000000000000000000000000000000 *
b00000000000000000000000000000000 +
b00000000000000000000000000000000 ,
b00000000000000000000000000000000 -
b00000000000000000000000000000000 .
b00000000000000000000000000000000 /
b00000000000000000000000000000000 0
b00000000000000000000000000000000 1
b00000000000000000000000000000000 2
b00000000000000000000000000000000 3
b00000000000000000000000000000000 4
b00000000000000000000000000000000 5
b00000000000000000000000000000000 6
b00000000000000000000000000000000 7
b00000000000000000000000000000000 8
b00000000000000000000000000000000 9
b00000000000000000000000000000000 :
b00000000000000000000000000000000 ;
b00000000000000000000000000000000 <
b00000000000000000000000000000000 =
b00000000000000000000000000000000 >
b00000000000000000000000000000000 ?
b00000000000000000000000000000000 @
b00000000000000000000000000000000 A
b00000000000000000000000000000000 B
b00000000000000000001000100010111 C
b00000000000000000000000000000000 D
b00000000000000000000000000000000 E
b0000 F
0G
0H
0I
1J
b0000000000000000000000000000000000000000000000000000000000000000000000000000000000000000000000000 K
b00000000000000000000000000000000000000000000000000000000000000000000000000000000000000000000000000000000000000 O
b00000 S
0T
b00000 U
b00000 V
b00000 W
b000 X
0Y
0Z
0[
0\
0]
b0000 ^
b00 _
1`
b000 a
b00000000000000000000000000000000 b
0c
0d
b00 e
b00000000000000000000000000000000 f
b0000000 g
0h
0i
0j
b00 k
b0000 l
0m
b00000000000000000000000000000001 n
b00000000000000000000000000000010 o
b00000000000000000000000000000011 p
b0000000000000000 q
b0000000000000001 r
b0000000000000010 s
b0000000000000011 t
b00000000000000000000000000000001 u
b00000000000000000000000000000010 v
b00000000000000000000000000000011 w
b00000000000000000001000100010111 x
0y
b00000000000000000000000000000000 z
b00000000000000000000000000000000 {
b00000000000000000000000000000000 |
b00000000000000000000000000000000 }
b00000000000000000000000000000000 ~
b00000000000000000000000000000000 !!
b00000000000000000000000000000000 "!
1#!
b00000 $!
b00000000000000000001000100010111 %!
1&!
0'!
0(!
b00000000000000000000000000000000 )!
0*!
b00000000 +!
b00000000000000000000000000000000 ,!
b00000000000000000000000000000000 -!
b00000000000000000000000000000100 .!
b00000000000000000000000000010111 /!
b00000000000000010000000000000000 0!
b00010000000000000000000000000000 1!
b00010000000000000000000000000100 2!
b00000000000000000000000000010011 3!
b00000000000000000000000000000000 4!
b00000000000000000000000000010000 5!
b0000011 6!
b0001111 7!
b0010011 8!
b0010111 9!
b0100011 :!
b0110011 ;!
b0110111 <!
b1100011 =!
b1100111 >!
b1101111 ?!
b1110011 @!
#5
0&!
#10
1&!
#15
0&!
#20
b00000000000000000000000000000100 B
b00001110000000010000000100010011 C
b1000000000000000000000000000000000000000000000000000000000000010000000000000000000001000100010111 K
b00010 W
b001 X
1Y
b01 _
b011 a
b00000000000000000001000000000000 b
b00000000000000000001000100010111 f
b0010111 g
b00000000000000000000000000000101 u
b00000000000000000000000000000110 v
b00000000000000000000000000000111 w
b00000000000000000001000000000000 z
b00000000000000000001000000000000 !!
b00000000000000000001000000000000 "!
0#!
1&!
1'!
b00000000000000000000000000001000 .!
#25
0&!
#30
b00000000000000000000000000001000 B
b00001110000000000000001010010011 C
b00000000000000000001000000000000 D
b1000000000000000000000000000001000000000000000000000000000000100000001110000000010000000100010011 K
b10001010000001000000000000000000010000000000000000000000000000000000000000000000000000000000000000000000000100 O
b00010 S
1T
b00010 U
b000 X
b00 _
b000 a
b00000000000000000000000011100000 b
1c
b00001110000000010000000100010011 f
b0010011 g
1j
b00000000000000000001000000000001 n
b00000000000000000001000000000010 o
b00000000000000000001000000000011 p
b0001000000000000 q
b0001000000000001 r
b0001000000000010 s
b0001000000000011 t
b00000000000000000000000000001001 u
b00000000000000000000000000001010 v
b00000000000000000000000000001011 w
b00000000000000000000000000000000 x
b00000000000000000001000011100000 z
b00000000000000000001000000000000 {
b00000000000000000001000000000000 |
b00000000000000000001000000000000 ~
b00000000000000000000000011100000 !!
b00000000000000000001000011100000 "!
b00000000000000000000000000000000 %!
1&!
b00000000000000000001000000000000 ,!
b00000000000000000000000000001100 .!
b00000000000000000000000000000000 /!
#35
0&!
#40
b00000000000000000001000000000000 $
b00000000000000000000000000001100 B
b00001110000000000000001100010011 C
b00000000000000000001000011100000 D
b1000000000000000000000000000010000000000000000000000000000000110000001110000000000000001010010011 K
b10001010000000000000000000000000010000111000000000000000000000000000000000000000000000000000000000000000001000 O
b00000 U
b00101 W
0c
b00001110000000000000001010010011 f
b00000000000000000001000011100001 n
b00000000000000000001000011100010 o
b00000000000000000001000011100011 p
b0001000011100000 q
b0001000011100001 r
b0001000011100010 s
b0001000011100011 t
b00000000000000000000000000001101 u
b00000000000000000000000000001110 v
b00000000000000000000000000001111 w
b00000000000000000000000011100000 z
b00000000000000000001000011100000 {
b00000000000000000000000000000000 |
b00000000000000000000000000000000 ~
b00000000000000000000000011100000 "!
1#!
1&!
b00000000000000000000000000000000 ,!
b00000000000000000000000000010000 .!
#45
0&!
#50
b00000000000000000001000011100000 $
b00000000000000000000000000010000 B
b00000000011000101111100001100011 C
b00000000000000000000000011100000 D
b1000000000000000000000000000011000000000000000000000000000001000000001110000000000000001100010011 K
b10010110000000000000000000000000000000111000000000000000000000000000000000000000000000000000000000000000001100 O
b00101 S
b00110 W
b00001110000000000000001100010011 f
b00000000000000000000000011100001 n
b00000000000000000000000011100010 o
b00000000000000000000000011100011 p
b0000000011100000 q
b0000000011100001 r
b0000000011100010 s
b0000000011100011 t
b00000000000000000000000000010001 u
b00000000000000000000000000010010 v
b00000000000000000000000000010011 w
b00000000000000000000000011100000 {
1&!
b00000000000000000000000000010100 .!
#55
0&!
#60
b00000000000000000000000011100000 '
b00000000000000000000000000010100 B
b00000000000000101010000000100011 C
b1000000000000000000000000000100000000000000000000000000000001010000000000011000101111100001100011 K
b10011010000000000000000000000000000000111000000000000000000000000000000000000000000000000000000000000000010000 O
b00110 S
b00101 U
b00110 V
b10000 W
b111 X
0Y
1\
b01 _
b010 a
b00000000000000000000000000010000 b
1d
b00000000011000101111100001100011 f
b1100011 g
0j
b00000000000000000000000000010101 u
b00000000000000000000000000010110 v
b00000000000000000000000000010111 w
1y
b00000000000000000000000000100000 z
b00000000000000000000000011100000 |
b00000000000000000000000011100000 }
b00000000000000000000000000010000 ~
b00000000000000000000000000010000 !!
b00000000000000000000000000100000 "!
b10000 $!
1&!
b00000000000000000000000011100000 ,!
b00000000000000000000000011100000 -!
b00000000000000000000000000100000 .!
#65
0&!
#70
b00000000000000000000000011100000 (
b00000000000000000000000000100000 B
b00000001110000000000000011101111 C
b00000000000000000000000000100000 D
b00000000000000000000000011100000 E
b0000000000000000000000000000101000000000000000000000000000001100000000000000000000000000000010011 K
b11000000000111000000000000000000000000001000000000000000000000000000001110000000000000000000000000000000010100 O
b10000 S
0T
b00000 U
b00000 V
b00000 W
b000 X
1Y
0\
b00 _
b000 a
b00000000000000000000000000000000 b
0d
b00000000000000000000000000010011 f
b0010011 g
1j
b00000000000000000000000000100001 n
b00000000000000000000000000100010 o
b00000000000000000000000000100011 p
b0000000000100000 q
b0000000000100001 r
b0000000000100010 s
b0000000000100011 t
b00000000000000000000000000100001 u
b00000000000000000000000000100010 v
b00000000000000000000000000100011 w
b00000001110000000000000011101111 x
0y
b00000000000000000000000000000000 z
b00000000000000000000000000100000 {
b00000000000000000000000000000000 |
b00000000000000000000000000000000 }
b00000000000000000000000000000000 ~
b00000000000000000000000000000000 !!
b00000000000000000000000000000000 "!
b00000 $!
b00000001110000000000000011101111 %!
1&!
b00000000000000000000000011100000 )!
b11100000 +!
b00000000000000000000000000000000 ,!
b00000000000000000000000000000000 -!
b00000000000000000000000000100100 .!
b00000001110000000000000011101111 /!
#75
0&!
#80
b00000000000000000000000000100100 B
b00010000000000000000001010110111 C
b00000000000000000000000000000000 D
b00000000000000000000000000000000 E
b1000000000000000000000000001000000000000000000000000000000010010000000001110000000000000011101111 K
b00000000000000000000000000000000000000000000000000000000000000000000000000000000000000000000000000000000011000 O
b00000 S
b11100 V
b00001 W
1]
b01 _
b100 a
b00000000000000000000000000011100 b
b10 e
b00000001110000000000000011101111 f
b1101111 g
0j
b00000000000000000000000000000001 n
b00000000000000000000000000000010 o
b00000000000000000000000000000011 p
b0000000000000000 q
b0000000000000001 r
b0000000000000010 s
b0000000000000011 t
b00000000000000000000000000100101 u
b00000000000000000000000000100110 v
b00000000000000000000000000100111 w
b00000000000000000001000100010111 x
1y
b00000000000000000000000000111100 z
b00000000000000000000000000000000 {
b00000000000000000000000000100000 ~
b00000000000000000000000000011100 !!
b00000000000000000000000000111100 "!
b11100 $!
b00000000000000000001000100010111 %!
1&!
b00000000000000000000000000000000 )!
b00000000 +!
b00000000000000000000000000111100 .!
b00000000000000000000000000010111 /!
#85
0&!
#90
b00000000000000000000000000111100 B
b00001101000000000000001010010011 C
b00000000000000000000000000111100 D
b0000000000000000000000000001001000000000000000000000000000010100000000000000000000000000000010011 K
b10000111000000000000000000000000000000001111000000000000000000000000000000000000000000000000000000000000100100 O
b00001 S
1T
b00000 V
b00000 W
0]
b00 _
b000 a
b00000000000000000000000000000000 b
b00 e
b00000000000000000000000000010011 f
b0010011 g
1j
b00000000000000000000000000111101 n
b00000000000000000000000000111110 o
b00000000000000000000000000111111 p
b0000000000111100 q
b0000000000111101 r
b0000000000111110 s
b0000000000111111 t
b00000000000000000000000000111101 u
b00000000000000000000000000111110 v
b00000000000000000000000000111111 w
b00001101000000000000001010010011 x
0y
b00000000000000000000000000000000 z
b00000000000000000000000000100100 {
b00000000000000000000000000000000 ~
b00000000000000000000000000000000 !!
b00000000000000000000000000000000 "!
b00000 $!
b00001101000000000000001010010011 %!
1&!
b00000000000000000000000001000000 .!
b11111111111111111111111110010011 /!
#95
0&!
#100
b00000000000000000000000000100100 #
b00000000000000000000000001000000 B
b11111111111100000000001100010011 C
b00000000000000000000000000000000 D
b1000000000000000000000000001111000000000000000000000000000100000000001101000000000000001010010011 K
b00000000000000000000000000000000000000000000000000000000000000000000000000000000000000000000000000000000101000 O
b00000 S
0T
b10000 V
b00101 W
b00000000000000000000000011010000 b
b00001101000000000000001010010011 f
b00000000000000000000000000000001 n
b00000000000000000000000000000010 o
b00000000000000000000000000000011 p
b0000000000000000 q
b0000000000000001 r
b0000000000000010 s
b0000000000000011 t
b00000000000000000000000001000001 u
b00000000000000000000000001000010 v
b00000000000000000000000001000011 w
b00000000000000000001000100010111 x
b00000000000000000000000011010000 z
b00000000000000000000000000000000 {
b00000000000000000000000011010000 !!
b00000000000000000000000011010000 "!
b10000 $!
b00000000000000000001000100010111 %!
1&!
b00000000000000000000000001000100 .!
b00000000000000000000000000010111 /!
#105
0&!
#110
b00000000000000000000000001000100 B
b00000000011000101000000000100011 C
b00000000000000000000000011010000 D
b1000000000000000000000000010000000000000000000000000000000100010011111111111100000000001100010011 K
b10010110000000000000000000000000000000110100000000000000000000000000000000000000000000000000000000000001000000 O
b00101 S
1T
b11111 V
b00110 W
b11111111111111111111111111111111 b
b11111111111100000000001100010011 f
1h
b00000000000000000000000011010001 n
b00000000000000000000000011010010 o
b00000000000000000000000011010011 p
b0000000011010000 q
b0000000011010001 r
b0000000011010010 s
b0000000011010011 t
b00000000000000000000000001000101 u
b00000000000000000000000001000110 v
b00000000000000000000000001000111 w
b00000000000000000000000000000000 x
b11111111111111111111111111111110 z
b00000000000000000000000011010000 {
b11111111111111111111111111111111 !!
b11111111111111111111111111111111 "!
b11111 $!
b00000000000000000000000000000000 %!
1&!
b00000000000000000000000001001000 .!
b00000000000000000000000000000000 /!
#115
0&!
#120
b00000000000000000000000011010000 '
b00000000000000000000000001001000 B
b00000000000000101000001110000011 C
b11111111111111111111111111111111 D
b1000000000000000000000000010001000000000000000000000000000100100000000000011000101000000000100011 K
b10011010000000111111111111111111111111111111110000000000000000000000000000000000000000000000000000000001000100 O
b00110 S
b00101 U
b00110 V
b00000 W
0Y
1[
b001 a
b00000000000000000000000000000000 b
1d
b00000000011000101000000000100011 f
b0100011 g
0h
0j
b11 k
b00000000000000000000000000000000 n
b00000000000000000000000000000001 o
b00000000000000000000000000000010 p
b1111111111111111 q
b0000000000000000 r
b0000000000000001 s
b0000000000000010 t
b00000000000000000000000001001001 u
b00000000000000000000000001001010 v
b00000000000000000000000001001011 w
b00000000000100010001011100000000 x
b00000000000000000000000011010000 z
b11111111111111111111111111111111 {
b00000000000000000000000011010000 |
b11111111111111111111111111111111 }
b00000000000000000000000011010000 ~
b00000000000000000000000000000000 !!
b00000000000000000000000011010000 "!
0#!
b00000 $!
1&!
b00000000000000000000000011010000 ,!
b11111111111111111111111111111111 -!
b00000000000000000000000001001100 .!
#125
0&!
#130
b11111111111111111111111111111111 (
b00000000000000000000000001001100 B
b11111111111100000000111000010011 C
b00000000000000000000000011010000 D
b11111111111111111111111111111111 E
b0001 F
1G
b1000000000000000000000000010010000000000000000000000000000100110000000000000000101000001110000011 K
b10000000001000000000000000000000000000110100001111111111111111111111111111111100000000000000000000000001001000 O
b00000 S
0T
b00000 V
b00111 W
1Y
1Z
0[
b000 a
0d
b01 e
b00000000000000101000001110000011 f
b0000011 g
b00 k
b0001 l
1m
b00000000000000000000000011010001 n
b00000000000000000000000011010010 o
b00000000000000000000000011010011 p
b0000000011010000 q
b0000000011010001 r
b0000000011010010 s
b0000000011010011 t
b00000000000000000000000001001101 u
b00000000000000000000000001001110 v
b00000000000000000000000001001111 w
b00000000000000000000000000000000 x
b00000000000000000000000011010000 {
b00000000000000000000000000000000 }
1&!
b11111111111111111111111111111111 )!
b11111111 +!
b00000000000000000000000000000000 -!
b00000000000000000000000001010000 .!
#135
0&!
#140
b00000000000000000000000001010000 B
b00000111110000111001001001100011 C
b00000000000000000000000000000000 E
b0000 F
0G
b1000000000000000000000000010011000000000000000000000000000101000011111111111100000000111000010011 K
b10011110110000000000000000000000000000110100000000000000000000000000000000000000000000000000000000000001001100 O
b00111 S
1T
b00000 U
b11111 V
b11100 W
0Z
b11111111111111111111111111111111 b
b00 e
b11111111111100000000111000010011 f
b0010011 g
1h
1j
b0000 l
0m
b00000000000000000000000001010001 u
b00000000000000000000000001010010 v
b00000000000000000000000001010011 w
b00000000000000000000000011111111 x
b11111111111111111111111111111110 z
b11111111111111111111111111111111 {
b00000000000000000000000000000000 |
b00000000000000000000000000000000 ~
b11111111111111111111111111111111 !!
b11111111111111111111111111111111 "!
1#!
b11111 $!
b00000000000000000000000011111111 %!
1&!
b00000000000000000000000000000000 )!
b00000000 +!
b00000000000000000000000000000000 ,!
b00000000000000000000000001010100 .!
b11111111111111111111111111111111 /!
#145
0&!
#150
b11111111111111111111111111111111 )
b00000000000000000000000001010100 B
b00000000000000101100001110000011 C
b11111111111111111111111111111111 D
b1000000000000000000000000010100000000000000000000000000000101010000000111110000111001001001100011 K
b11110010000000111111111111111111111111111111110000000000000000000000000000000000000000000000000000000001010000 O
b11100 S
b00111 U
b11100 V
b00100 W
b001 X
0Y
1\
b01 _
b010 a
b00000000000000000000000001100100 b
1d
b00000111110000111001001001100011 f
b1100011 g
0h
0j
b11 k
b00000000000000000000000000000000 n
b00000000000000000000000000000001 o
b00000000000000000000000000000010 p
b1111111111111111 q
b0000000000000000 r
b0000000000000001 s
b0000000000000010 t
b00000000000000000000000001010101 u
b00000000000000000000000001010110 v
b00000000000000000000000001010111 w
b00000000000100010001011100000000 x
b00000000000000000000000010110100 z
b11111111111111111111111111111111 |
b11111111111111111111111111111111 }
b00000000000000000000000001010000 ~
b00000000000000000000000001100100 !!
b00000000000000000000000010110100 "!
0#!
b00100 $!
b00000000000000000000000000000000 %!
1&!
b11111111111111111111111111111111 ,!
b11111111111111111111111111111111 -!
b00000000000000000000000001011000 .!
b00000000000000000000000000000000 /!
#155
0&!
#160
b11111111111111111111111111111111 >
b00000000000000000000000001011000 B
b00001111111100000000111000010011 C
b00000000000000000000000010110100 D
b11111111111111111111111111111111 E
b1000000000000000000000000010101000000000000000000000000000101100000000000000000101100001110000011 K
b10010000000001000000000000000000000000101101001111111111111111111111111111111100000000000000000000000001010100 O
b00100 S
0T
b00101 U
b00000 V
b00111 W
b100 X
1Y
1Z
0\
b00 _
b000 a
b00000000000000000000000000000000 b
0d
b01 e
b00000000000000101100001110000011 f
b0000011 g
b00 k
b00000000000000000000000010110101 n
b00000000000000000000000010110110 o
b00000000000000000000000010110111 p
b0000000010110100 q
b0000000010110101 r
b0000000010110110 s
b0000000010110111 t
b00000000000000000000000001011001 u
b00000000000000000000000001011010 v
b00000000000000000000000001011011 w
b00010000000000000000001010110111 x
b00000000000000000000000011010000 z
b00000000000000000000000010110100 {
b00000000000000000000000011010000 |
b00000000000000000000000000000000 }
b00000000000000000000000011010000 ~
b00000000000000000000000000000000 !!
b00000000000000000000000011010000 "!
b00000 $!
b00010000000000000000001010110111 %!
1&!
b11111111111111111111111111111111 )!
b11111111 +!
b00000000000000000000000011010000 ,!
b00000000000000000000000000000000 -!
b00000000000000000000000001011100 .!
b00000000000000000000001010110111 /!
#165
0&!
#170
b00000000000000000000000001011100 B
b00000101110000111001110001100011 C
b00000000000000000000000011010000 D
b00000000000000000000000000000000 E
b1000000000000000000000000010110000000000000000000000000000101110000001111111100000000111000010011 K
b10011110110100000000000000000000000000110100000000000000000000000000000000000000000000000000000000000001011000 O
b00111 S
1T
b00000 U
b11111 V
b11100 W
b000 X
0Z
b00000000000000000000000011111111 b
b00 e
b00001111111100000000111000010011 f
b0010011 g
1j
b00000000000000000000000011010001 n
b00000000000000000000000011010010 o
b00000000000000000000000011010011 p
b0000000011010000 q
b0000000011010001 r
b0000000011010010 s
b0000000011010011 t
b00000000000000000000000001011101 u
b00000000000000000000000001011110 v
b00000000000000000000000001011111 w
b00000000000000000000000011111111 x
b00000000000000000000000011111110 z
b00000000000000000000000011111111 {
b00000000000000000000000000000000 |
b00000000000000000000000000000000 ~
b00000000000000000000000011111111 !!
b00000000000000000000000011111111 "!
1#!
b11111 $!
b00000000000000000000000011111111 %!
1&!
b00000000000000000000000000000000 )!
b00000000 +!
b00000000000000000000000000000000 ,!
b00000000000000000000000001100000 .!
b00000000000000000000000011111111 /!
#175
0&!
#180
b00000000000000000000000011111111 )
b00000000000000000000000001100000 B
b11111111111000000000001100010011 C
b00000000000000000000000011111111 D
b1000000000000000000000000010111000000000000000000000000000110000000000101110000111001110001100011 K
b11110010000000000000000000000000000000111111110000000000000000000000000000000000000000000000000000000001011100 O
b11100 S
b00111 U
b11100 V
b11000 W
b001 X
0Y
1\
b01 _
b010 a
b00000000000000000000000001011000 b
1d
b00000101110000111001110001100011 f
b1100011 g
0j
b11 k
b00000000000000000000000100000000 n
b00000000000000000000000100000001 o
b00000000000000000000000100000010 p
b0000000011111111 q
b0000000100000000 r
b0000000100000001 s
b0000000100000010 t
b00000000000000000000000001100001 u
b00000000000000000000000001100010 v
b00000000000000000000000001100011 w
b00000000000000000000000000000000 x
b00000000000000000000000010110100 z
b00000000000000000000000011111111 |
b00000000000000000000000011111111 }
b00000000000000000000000001011100 ~
b00000000000000000000000001011000 !!
b00000000000000000000000010110100 "!
0#!
b11000 $!
b00000000000000000000000000000000 %!
1&!
b00000000000000000000000011111111 ,!
b00000000000000000000000011111111 -!
b00000000000000000000000001100100 .!
b00000000000000000000000000000000 /!
#185
0&!
